{
    "app_categories": {
        "Connectivity": "Savienojamība",
        "Development": "Izstrādāšana",
        "Games": "Spēles",
        "Graphics": "Grafika",
        "Internet": "Internets",
        "Money": "Nauda",
        "Multimedia": "Multivides",
        "Navigation": "Navigācija",
        "Phone & SMS": "Tālrunis & īsziņa",
        "Reading": "Lasījumam",
        "Science & Education": "Zinātne un Izglītība",
        "Security": "Drošība",
        "Sports & Health": "Sports un veselība",
        "System": "Sistēmas",
        "Time": "Laiks",
        "Writing": "Rakstīšana"
    }
}
