{
    "add_repo": {
        "no_internet": "インターネットがありませんか？心配いりません。<a href=\"../swap/\">オフラインでアプリを送受信する方法を学ぶ</a>",
        "open_repo_link": {
            "description": "リポジトリのリンクをメールやソーシャルメディア、SNSなどで受け取った場合、F-Droid でそれを開くとアプリをインストールすることができるようになります。",
            "short_summary": "リポジトリリンクを開く",
            "steps": {
                "step_1": "Android デバイスで F-Droid アプリをダウンロードしてインストールします。",
                "step_2": "デバイス上のWebブラウザでリンクをクリックして開きます。",
                "step_3": "リンクを開き，「Add to F-Droid」ボタンをタップします。",
                "step_4": "'I have F-Droid'ボタンをタップします。F-Droidアプリが開きます。",
                "step_5": "リポジトリのアドレスが既に入っている状態で'Add new repository'が現れます。'OK'をタップして追加します。",
                "step_6": "新しいリポジトリが追加されます。リポジトリの一覧を見るには、'Settings'を開きます。'Repositories'を選びます。",
                "step_7": "リポジトリをタップすると内容が表示されます。",
                "step_8": "好みのアプリを選択して、デバイスにインストールします。"
            },
            "title": "あなたのデバイスでリポジトリのリンクを開く"
        },
        "overview": {
            "summary": "より多くを得るには、F-Droidにリポジトリを追加します。リポジトリは精選されたコンテンツのコレクションです。そこから直接人々のリポジトリについて知ることができます。開発者はしばしば自身のウェブサイトからそのF-Droidリポジトリへリンクします。トレーナーはしばしばeメール、Facebook、Twitterでリポジトリへのリンクを共有します。",
            "title": "より多くのコンテンツを得る。"
        },
        "scan_qr_code": {
            "short_summary": "QR コードをスキャン",
            "title": "ほかのデバイスでQRコードをスキャン"
        },
        "title": "F-Droidにリポジトリを追加する方法"
    },
    "create_repo": {
        "customize_repo": {
            "steps": {
                "step_2": "「編集」をクリック。",
                "step_4": "あなたの行った全ての変更は自動的に保存されます。"
            },
            "title": "リポジトリをカスタマイズ"
        },
        "overview": {
            "title": "自身のアプリやファイルを追加する。"
        },
        "share_repo": {
            "title": "リポジトリをカスタマイズ"
        },
        "title": "リポジトリを作るには",
        "update_repo": {
            "title": "リポジトリを更新"
        }
    },
    "misc": {
        "option_x_description": "選択肢 {{ number }}: {{ description }}",
        "overview": {
            "title": "F-Droid でできること",
            "tutorial_x_title": "チュートリアル {{ number }}: {{ title }}"
        },
        "step_x": "ステップ {{ number }}",
        "step_x_description": "ステップ{{ number }}: {{ description }}"
    },
    "swap": {
        "intro": "インターネットがありませんか？問題ありません。近くの人からアプリをダウンロードしましょう。",
        "overview": {
            "summary": "インターネットがありませんか？問題ありません。 F-Droid Nearby は同じ部屋にいる人々がコンテンツを送受信を可能にします。",
            "title": "オフラインでアプリを送受信する。"
        },
        "step_5": "'—&gt;'ボタンをタップしてください。",
        "title": "オフラインでアプリを送受信する方法"
    }
}
